Data Wrangling
…
mons %>% distinct(session, created_date) %>% nrow()

## distinct (grouped): removed 2 rows (<1%), 3,825 rows remaining

## [1] 3825

mons %>% group_by(session) %>% filter("lab" %in% date_origin)

## group_by: one grouping variable (session)

## filter (grouped): removed 3,293 rows (86%), 534 rows remaining

## # A tibble: 534 x 5
##    session                                        created_date menstrual_onset_date_in… date_origin onset_diff
##    <chr>                                          <date>       <date>                   <chr>            <dbl>
##  1 _EQ98zBViYQhrRRoVXVag6gA3YYU_xkE0kQaCOhlsV24N… 2016-10-27   2016-10-05               demo                NA
##  2 _EQ98zBViYQhrRRoVXVag6gA3YYU_xkE0kQaCOhlsV24N… 2016-11-03   2016-11-03               diary               29
##  3 _EQ98zBViYQhrRRoVXVag6gA3YYU_xkE0kQaCOhlsV24N… 2016-11-14   2016-12-01               lab                 27
##  4 _EQ98zBViYQhrRRoVXVag6gA3YYU_xkE0kQaCOhlsV24N… 2017-01-04   2016-12-31               diary               30
##  5 -QE3RufkOaQJi-Gdcfrron_w1D-1zp9PBFbVmbBgbiNS0… 2016-10-17   2016-10-05               demo                NA
##  6 -QE3RufkOaQJi-Gdcfrron_w1D-1zp9PBFbVmbBgbiNS0… 2016-10-17   2016-11-05               lab                 31
##  7 -QE3RufkOaQJi-Gdcfrron_w1D-1zp9PBFbVmbBgbiNS0… 2016-11-17   2016-12-03               lab                 28
##  8 -QE3RufkOaQJi-Gdcfrron_w1D-1zp9PBFbVmbBgbiNS0… 2017-01-02   2017-01-02               followup            30
##  9 10tuOUPxebpLQWXZk93kcys9TipSZaW1wqtXV30ynk8Ey… 2016-05-03   2016-04-02               demo                NA
## 10 10tuOUPxebpLQWXZk93kcys9TipSZaW1wqtXV30ynk8Ey… 2016-05-09   2016-05-09               diary               37
## # … with 524 more rows
…
all_surveys %>% group_by(tolower(str_trim(contraception_app_name)), cycle_awareness_app) %>% 
  summarise(n = n()) %>% arrange(desc(n))

## group_by: 2 grouping variables (tolower(str_trim(contraception_app_name)), cycle_awareness_app)

## summarise: now 142 rows and 3 columns, one group variable remaining (tolower(str_trim(contraception_app_name)))

## # A tibble: 142 x 3
##    `tolower(str_trim(contraception_app_name))` cycle_awareness_app     n
##    <chr>                                       <chr>               <int>
##  1 <NA>                                        none                 1249
##  2 clue                                        cycle_phase_aware      61
##  3 mein kalender                               cycle_phase_aware      47
##  4 womanlog                                    cycle_phase_aware      24
##  5 ovuview                                     cycle_phase_aware      20
##  6 p tracker                                   cycle_phase_aware      12
##  7 lady pill reminder                          reminder               10
##  8 life                                        cycle_phase_aware      10
##  9 mynfp                                       cycle_phase_aware      10
## 10 period tracker                              cycle_phase_aware       8
## # … with 132 more rows
…
